NEXT_PUBLIC_APP_ENV='local'
NEXT_PUBLIC_API_BASE_URL='https://api.example.com'
NEXT_PUBLIC_APP_BASE_URL='http://localhost:3000'
NEXT_PUBLIC_BUILD_TAG='local'
NEXT_PUBLIC_GA_TRACKING=''
API_BASE_URL_INTERNAL='https://api.example.com'
JWT_SECRET_KEY=
